{
  "project_info": {
    "project_number": "1057054725277",
    "firebase_url": "https://waterapp-44ebe.firebaseio.com",
    "project_id": "waterapp-44ebe",
    "storage_bucket": "waterapp-44ebe.appspot.com"
  },
  "client": [
    {
      "client_info": {
        "mobilesdk_app_id": "1:1057054725277:android:c980d8f25a7f971e88f074",
        "android_client_info": {
          "package_name": "com.water.delivery"
        }
      },
      "oauth_client": [
        {
          "client_id": "1057054725277-sau900on7flbm8msl2ihj1vfrutmt4rk.apps.googleusercontent.com",
          "client_type": 3
        }
      ],
      "api_key": [
        {
          "current_key": "AIzaSyDcKvxHGbmH3jdKU1_JYgHip9NE3lYPENY"
        }
      ],
      "services": {
        "appinvite_service": {
          "other_platform_oauth_client": [
            {
              "client_id": "1057054725277-sau900on7flbm8msl2ihj1vfrutmt4rk.apps.googleusercontent.com",
              "client_type": 3
            }
          ]
        }
      }
    }
  ],
  "configuration_version": "1"
}